EDA of GapMinder DataSet
…
longevity_summary <- mydata %>%
  filter(!is.na(life)) %>%
  group_by(Year) %>%
  summarize(Country = n(),
            max_life_expect = max(life),
            min_life_expect = min(life)) %>%
  mutate(range_life_expect = max_life_expect - min_life_expect) %>%
  arrange(desc(Year))

longevity_summary

## # A tibble: 216 x 5
##     Year Country max_life_expect min_life_expect range_life_expect
##    <int>   <int>           <dbl>           <dbl>             <dbl>
##  1  2015     178            84.1            48.5              35.6
##  2  2014     178            84              48.4              35.6
##  3  2013     178            83.9            48.3              35.6
##  4  2012     178            83.8            48.2              35.6
##  5  2011     178            83.8            48.3              35.5
##  6  2010     178            83.7            37                46.7
##  7  2009     178            83.6            46.3              37.3
##  8  2008     178            83.5            45.2              38.3
##  9  2007     178            83.4            44.4              39. 
## 10  2006     178            83.2            44                39.2
## # ... with 206 more rows
…
